<svg version="1.1" id="Layer_1" xmlns="http://www.w3.org/2000/svg" xmlns:xlink="http://www.w3.org/1999/xlink" x="0px" y="0px"
	 width="100%" viewBox="0 0 248 166" enable-background="new 0 0 248 166" xml:space="preserve">
<path fill="#FDFAFA" opacity="1.000000" stroke="none" 
	d="
M158.000000,167.000000 
	C105.333336,167.000000 53.166672,167.000000 1.000007,167.000000 
	C1.000005,111.666672 1.000005,56.333347 1.000002,1.000015 
	C83.666656,1.000010 166.333313,1.000010 248.999969,1.000005 
	C248.999985,56.333317 248.999985,111.666634 249.000000,166.999969 
	C218.833328,167.000000 188.666672,167.000000 158.000000,167.000000 
M129.357544,64.483803 
	C129.130768,62.928051 128.903976,61.372299 128.704742,60.005547 
	C126.109383,60.005547 124.214417,60.005547 122.187309,60.005547 
	C128.928070,48.213612 130.268036,43.115170 129.219818,33.529839 
	C127.371857,16.631248 112.576202,3.027121 95.900581,2.893903 
	C77.238579,2.744816 62.283195,15.281294 59.870537,32.895069 
	C59.594654,34.909153 58.284801,36.781605 57.454369,38.719723 
	C55.676571,37.837868 53.663563,37.246258 52.159126,36.027081 
	C42.362507,28.088041 29.904522,26.796259 19.057711,32.773659 
	C8.756444,38.450420 2.872291,50.512760 4.658659,62.291283 
	C6.522774,74.582436 15.139606,83.723106 27.352467,86.630829 
	C28.814138,86.978844 30.045227,88.295326 31.383194,89.162918 
	C29.826702,89.813980 28.311563,90.830048 26.701969,91.012398 
	C25.124239,91.191147 23.459972,90.359283 21.816465,90.262085 
	C19.348454,90.116119 16.865423,90.224098 13.604691,90.224098 
	C17.028448,95.165588 19.702869,98.959679 22.303429,102.803749 
	C23.853302,105.094711 25.137897,104.814758 27.018152,102.984390 
	C28.546352,101.496750 30.663548,100.614159 33.159245,99.066551 
	C35.387012,112.270935 37.369854,124.023605 39.373894,135.901932 
	C42.775932,135.431046 45.519005,135.051376 47.925358,134.718307 
	C50.402836,140.922318 47.823261,143.614212 42.368671,144.996414 
	C38.520905,145.971451 34.876122,147.728867 31.103621,149.029373 
	C29.725079,149.504593 28.066553,150.249817 26.830736,149.881653 
	C18.659964,147.447586 12.935926,153.528275 5.607246,154.836365 
	C6.699951,158.453522 7.553507,161.279037 8.543806,164.557205 
	C14.305251,162.384781 21.325991,161.705856 25.060751,157.846802 
	C30.086922,152.653336 36.009510,150.434784 42.102486,148.445770 
	C49.061012,146.174240 53.654774,143.205887 51.910519,135.029205 
	C51.853828,134.763458 52.135452,134.425537 52.374805,133.837814 
	C80.860748,129.026352 109.502914,124.188484 138.709015,119.255379 
	C137.317154,111.321426 135.996796,103.830345 134.693481,96.336296 
	C134.428345,94.811722 134.227325,93.276001 134.888168,91.946968 
	C137.049759,91.932198 139.388489,92.450439 141.339539,91.802086 
	C147.047363,89.905296 152.080490,91.571625 157.184067,93.817284 
	C160.594193,95.317802 164.120224,96.554962 167.757690,97.973679 
	C167.862000,97.022606 168.137253,96.400337 167.935349,96.067680 
	C165.372711,91.845665 168.963028,88.518600 169.667831,84.800186 
	C169.773056,84.245071 172.662384,83.594681 172.739594,83.749336 
	C174.249039,86.772560 177.104050,86.803741 179.841751,87.532700 
	C184.325287,88.726494 188.666000,90.456779 193.723083,92.185020 
	C193.723083,82.774780 193.723083,74.812866 193.723083,66.055809 
	C196.592545,66.055809 199.177719,66.055809 202.282898,66.055809 
	C202.282898,70.159447 202.282898,73.741661 202.282898,77.353546 
	C204.840942,77.616539 206.899261,77.828148 208.896164,78.033447 
	C209.177383,80.456993 209.403702,82.407494 209.630035,84.357994 
	C210.284790,84.328751 210.939529,84.299515 211.594284,84.270271 
	C211.594284,81.601517 211.706940,78.926720 211.564194,76.265625 
	C211.405670,73.310951 212.502640,71.868820 215.594025,72.113716 
	C217.196701,72.240685 218.817719,72.136063 220.822296,72.136063 
	C220.822296,75.952919 220.505783,79.281204 220.915375,82.517601 
	C221.290741,85.483704 218.731705,89.564339 223.855408,91.468719 
	C223.055542,84.062927 229.321411,88.413239 231.713364,86.435112 
	C231.829575,84.185097 231.938797,82.070625 231.974594,81.377426 
	C234.810989,79.671829 238.499359,78.439919 238.466858,77.315552 
	C238.232773,69.217621 241.106140,60.991753 237.770691,52.981266 
	C237.445862,52.201153 237.676941,50.867847 238.161621,50.125252 
	C241.037231,45.719368 239.978958,41.325089 238.490967,36.631252 
	C212.745224,43.345436 187.152603,50.019688 161.565826,56.692413 
	C161.018311,54.726112 160.546127,53.030396 159.945892,50.874756 
	C155.251816,54.890415 151.474167,59.664429 146.544403,61.916706 
	C141.348724,64.290474 135.052780,64.256012 129.357544,64.483803 
M247.019394,86.411209 
	C246.191742,81.596901 245.364075,76.782593 244.536407,71.968285 
	C244.267395,72.038551 243.998398,72.108826 243.729385,72.179100 
	C243.729385,79.770432 243.729385,87.361763 243.729385,95.088417 
	C245.585129,94.984886 246.689270,94.923294 248.308792,94.832947 
	C247.847885,92.082863 247.447083,89.691437 247.019394,86.411209 
z"/>
<path fill="#040404" opacity="1.000000" stroke="none" 
	d="
M133.996735,91.745422 
	C134.227325,93.276001 134.428345,94.811722 134.693481,96.336296 
	C135.996796,103.830345 137.317154,111.321426 138.709015,119.255379 
	C109.502914,124.188484 80.860748,129.026352 52.374805,133.837814 
	C52.135452,134.425537 51.853828,134.763458 51.910519,135.029205 
	C53.654774,143.205887 49.061012,146.174240 42.102486,148.445770 
	C36.009510,150.434784 30.086922,152.653336 25.060751,157.846802 
	C21.325991,161.705856 14.305251,162.384781 8.543806,164.557205 
	C7.553507,161.279037 6.699951,158.453522 5.607246,154.836365 
	C12.935926,153.528275 18.659964,147.447586 26.830736,149.881653 
	C28.066553,150.249817 29.725079,149.504593 31.103621,149.029373 
	C34.876122,147.728867 38.520905,145.971451 42.368671,144.996414 
	C47.823261,143.614212 50.402836,140.922318 47.925358,134.718307 
	C45.519005,135.051376 42.775932,135.431046 39.373894,135.901932 
	C37.369854,124.023605 35.387012,112.270935 33.159245,99.066551 
	C30.663548,100.614159 28.546352,101.496750 27.018152,102.984390 
	C25.137897,104.814758 23.853302,105.094711 22.303429,102.803749 
	C19.702869,98.959679 17.028448,95.165588 13.604691,90.224098 
	C16.865423,90.224098 19.348454,90.116119 21.816465,90.262085 
	C23.459972,90.359283 25.124239,91.191147 26.701969,91.012398 
	C28.311563,90.830048 29.826702,89.813980 31.383194,89.162918 
	C30.045227,88.295326 28.814138,86.978844 27.352467,86.630829 
	C15.139606,83.723106 6.522774,74.582436 4.658659,62.291283 
	C2.872291,50.512760 8.756444,38.450420 19.057711,32.773659 
	C29.904522,26.796259 42.362507,28.088041 52.159126,36.027081 
	C53.663563,37.246258 55.676571,37.837868 57.454369,38.719723 
	C58.284801,36.781605 59.594654,34.909153 59.870537,32.895069 
	C62.283195,15.281294 77.238579,2.744816 95.900581,2.893903 
	C112.576202,3.027121 127.371857,16.631248 129.219818,33.529839 
	C130.268036,43.115170 128.928070,48.213612 122.187309,60.005547 
	C124.214417,60.005547 126.109383,60.005547 128.704742,60.005547 
	C128.903976,61.372299 129.130768,62.928051 129.235092,65.318779 
	C130.740677,74.684311 132.368713,83.214867 133.996735,91.745422 
M80.221237,48.209019 
	C86.506592,55.168892 95.204140,56.859650 102.620140,52.563259 
	C111.357994,47.501072 114.164513,36.748112 109.046524,27.941057 
	C104.149529,19.514286 92.705032,16.905432 84.247139,22.287849 
	C75.839050,27.638575 73.920113,38.529652 80.221237,48.209019 
M20.810684,49.578987 
	C20.364941,50.648235 19.810331,51.686089 19.491432,52.791912 
	C17.660784,59.139885 20.062866,65.556847 25.456129,68.882370 
	C30.975636,72.285736 37.863937,71.782600 42.601986,67.629990 
	C47.355412,63.463902 48.790718,56.625050 46.092716,50.773540 
	C41.412743,40.623466 27.255861,39.471127 20.810684,49.578987 
M71.532211,69.162750 
	C72.992279,68.867920 74.452347,68.573097 75.912415,68.278267 
	C72.606117,64.963089 69.218552,61.308258 65.657211,61.130245 
	C59.728867,60.833916 61.890224,67.427185 59.035980,71.261940 
	C63.604347,70.475723 67.154144,69.864799 71.532211,69.162750 
M124.823837,110.142944 
	C125.179443,111.630348 125.281563,113.272308 126.039085,114.514648 
	C126.278511,114.907310 128.696976,114.628937 129.343124,113.935478 
	C130.022186,113.206711 130.227539,110.754395 129.845779,110.551804 
	C128.526199,109.851593 126.860649,109.803375 124.823837,110.142944 
z"/>
<path fill="#050505" opacity="1.000000" stroke="none" 
	d="
M134.442444,91.846191 
	C132.368713,83.214867 130.740677,74.684311 129.175095,65.713730 
	C135.052780,64.256012 141.348724,64.290474 146.544403,61.916706 
	C151.474167,59.664429 155.251816,54.890415 159.945892,50.874756 
	C160.546127,53.030396 161.018311,54.726112 161.565826,56.692413 
	C187.152603,50.019688 212.745224,43.345436 238.490967,36.631252 
	C239.978958,41.325089 241.037231,45.719368 238.161621,50.125252 
	C237.676941,50.867847 237.445862,52.201153 237.770691,52.981266 
	C241.106140,60.991753 238.232773,69.217621 238.466858,77.315552 
	C238.499359,78.439919 234.810989,79.671829 231.974594,81.377426 
	C231.938797,82.070625 231.829575,84.185097 231.713364,86.435112 
	C229.321411,88.413239 223.055542,84.062927 223.855408,91.468719 
	C218.731705,89.564339 221.290741,85.483704 220.915375,82.517601 
	C220.505783,79.281204 220.822296,75.952919 220.822296,72.136063 
	C218.817719,72.136063 217.196701,72.240685 215.594025,72.113716 
	C212.502640,71.868820 211.405670,73.310951 211.564194,76.265625 
	C211.706940,78.926720 211.594284,81.601517 211.594284,84.270271 
	C210.939529,84.299515 210.284790,84.328751 209.630035,84.357994 
	C209.403702,82.407494 209.177383,80.456993 208.896164,78.033447 
	C206.899261,77.828148 204.840942,77.616539 202.282898,77.353546 
	C202.282898,73.741661 202.282898,70.159447 202.282898,66.055809 
	C199.177719,66.055809 196.592545,66.055809 193.723083,66.055809 
	C193.723083,74.812866 193.723083,82.774780 193.723083,92.185020 
	C188.666000,90.456779 184.325287,88.726494 179.841751,87.532700 
	C177.104050,86.803741 174.249039,86.772560 172.739594,83.749336 
	C172.662384,83.594681 169.773056,84.245071 169.667831,84.800186 
	C168.963028,88.518600 165.372711,91.845665 167.935349,96.067680 
	C168.137253,96.400337 167.862000,97.022606 167.757690,97.973679 
	C164.120224,96.554962 160.594193,95.317802 157.184067,93.817284 
	C152.080490,91.571625 147.047363,89.905296 141.339539,91.802086 
	C139.388489,92.450439 137.049759,91.932198 134.442444,91.846191 
z"/>
<path fill="#121212" opacity="1.000000" stroke="none" 
	d="
M247.032837,86.855606 
	C247.447083,89.691437 247.847885,92.082863 248.308792,94.832947 
	C246.689270,94.923294 245.585129,94.984886 243.729385,95.088417 
	C243.729385,87.361763 243.729385,79.770432 243.729385,72.179100 
	C243.998398,72.108826 244.267395,72.038551 244.536407,71.968285 
	C245.364075,76.782593 246.191742,81.596901 247.032837,86.855606 
z"/>
<path fill="#F4F4F4" opacity="1.000000" stroke="none" 
	d="
M80.002869,47.912498 
	C73.920113,38.529652 75.839050,27.638575 84.247139,22.287849 
	C92.705032,16.905432 104.149529,19.514286 109.046524,27.941057 
	C114.164513,36.748112 111.357994,47.501072 102.620140,52.563259 
	C95.204140,56.859650 86.506592,55.168892 80.002869,47.912498 
M99.264725,39.740932 
	C99.172745,41.137993 98.823334,42.597080 99.136444,43.896534 
	C99.238136,44.318581 101.435524,44.827309 102.029297,44.400013 
	C102.912415,43.764492 103.222290,42.332382 103.776123,41.239281 
	C102.482964,40.608135 101.189804,39.976986 99.264725,39.740932 
M98.621704,33.974388 
	C100.002464,33.703606 101.522560,33.675056 102.677101,33.010979 
	C103.013260,32.817627 102.633652,30.539888 101.964447,29.724609 
	C101.493469,29.150816 99.247551,29.050982 99.061996,29.404675 
	C98.429810,30.609676 98.359383,32.109402 98.621704,33.974388 
M92.409729,25.752275 
	C91.035629,25.979694 89.546120,25.976269 88.355835,26.571365 
	C87.985619,26.756460 88.025673,29.020983 88.592186,29.515837 
	C89.375473,30.200041 91.612740,30.625673 91.858116,30.255186 
	C92.584274,29.158802 92.638245,27.617218 92.409729,25.752275 
M92.654785,47.593315 
	C94.579147,45.375786 93.935585,43.527740 91.414703,42.761066 
	C90.575058,42.505703 88.391121,43.843769 88.229065,44.715126 
	C87.735710,47.367950 89.166626,48.670460 92.654785,47.593315 
z"/>
<path fill="#F1F1F1" opacity="1.000000" stroke="none" 
	d="
M20.977146,49.234764 
	C27.255861,39.471127 41.412743,40.623466 46.092716,50.773540 
	C48.790718,56.625050 47.355412,63.463902 42.601986,67.629990 
	C37.863937,71.782600 30.975636,72.285736 25.456129,68.882370 
	C20.062866,65.556847 17.660784,59.139885 19.491432,52.791912 
	C19.810331,51.686089 20.364941,50.648235 20.977146,49.234764 
z"/>
<path fill="#EBE8E8" opacity="1.000000" stroke="none" 
	d="
M71.118073,69.208313 
	C67.154144,69.864799 63.604347,70.475723 59.035980,71.261940 
	C61.890224,67.427185 59.728867,60.833916 65.657211,61.130245 
	C69.218552,61.308258 72.606117,64.963089 75.912415,68.278267 
	C74.452347,68.573097 72.992279,68.867920 71.118073,69.208313 
z"/>
<path fill="#EDEAEA" opacity="1.000000" stroke="none" 
	d="
M125.075333,109.824936 
	C126.860649,109.803375 128.526199,109.851593 129.845779,110.551804 
	C130.227539,110.754395 130.022186,113.206711 129.343124,113.935478 
	C128.696976,114.628937 126.278511,114.907310 126.039085,114.514648 
	C125.281563,113.272308 125.179443,111.630348 125.075333,109.824936 
z"/>
<path fill="#292929" opacity="1.000000" stroke="none" 
	d="
M99.580688,39.543385 
	C101.189804,39.976986 102.482964,40.608135 103.776123,41.239281 
	C103.222290,42.332382 102.912415,43.764492 102.029297,44.400013 
	C101.435524,44.827309 99.238136,44.318581 99.136444,43.896534 
	C98.823334,42.597080 99.172745,41.137993 99.580688,39.543385 
z"/>
<path fill="#252525" opacity="1.000000" stroke="none" 
	d="
M98.348114,33.735508 
	C98.359383,32.109402 98.429810,30.609676 99.061996,29.404675 
	C99.247551,29.050982 101.493469,29.150816 101.964447,29.724609 
	C102.633652,30.539888 103.013260,32.817627 102.677101,33.010979 
	C101.522560,33.675056 100.002464,33.703606 98.348114,33.735508 
z"/>
<path fill="#242424" opacity="1.000000" stroke="none" 
	d="
M92.682419,26.001019 
	C92.638245,27.617218 92.584274,29.158802 91.858116,30.255186 
	C91.612740,30.625673 89.375473,30.200041 88.592186,29.515837 
	C88.025673,29.020983 87.985619,26.756460 88.355835,26.571365 
	C89.546120,25.976269 91.035629,25.979694 92.682419,26.001019 
z"/>
<path fill="#262626" opacity="1.000000" stroke="none" 
	d="
M92.316887,47.773956 
	C89.166626,48.670460 87.735710,47.367950 88.229065,44.715126 
	C88.391121,43.843769 90.575058,42.505703 91.414703,42.761066 
	C93.935585,43.527740 94.579147,45.375786 92.316887,47.773956 
z"/>
</svg>